FULL=N
IGNORE=Y
FILE=prod40.exp
LOG=test_oraimp.log
ROWS=Y
COMMIT=Y
FROMUSER=prod
TOUSER=test
TABLES=
(
ADRMST_40
CARDTL_40
CARHDR_40
CARMTX_40
CSTPRQ_40
CSTREQ_40
CTNMST_40
DSCMST_40
FTPMST_40
PRTMST_40
USR_ALTPRT_40
)
