Copy of Zebra 105S/Se (203dpi)
^XA
^EG
^XZ
^XA
^MCY
^XZ
^XA
^FWN^CFD,24^LH0,0
^CI0^PR6^MNY^MTT^MMT^MD0^PON^PMN^LRN
^XZ
^XA
^DFR:TEMP_FMT.ZPL
^LRN
^XZ
^XA
^XFR:TEMP_FMT.ZPL
^A0N,34,34^FO3,170^FDSHIP^FS
^A0N,34,34^FO3,211^FDTO:^FS
^FO1,430^GB808,4,4,B,0^FS
^FO674,684^GB137,101,101,B,0^FS
^FO1,785^GB811,4,4,B,0^FS
^FO4,1090^GB812,20,20,B,0^FS
^A0N,28,28^FO7,751^FDTRACKING #:^FS
^FO244,433^GB4,235,4,B,0^FS
^FO2,665^GB812,20,20,B,0^FS
^A0N,34,34^FO400,1244^FV(00) 0 00 53005 044409711 7^FS
^A0B,28,28^FO14,1283^FV^FS
^A0N,34,34^FO64,1548^FVFSTG01^FS
^A0N,34,34^FO244,1548^FVSWMKA074^FS
^A0N,34,34^FO620,1548^FV6620882^FS
^A0N,34,34^FO620,1590^FVSID1887507^FS
^A0N,34,34^FO465,1548^FVPIECE4^FS
^A0N,34,34^FO465,1590^FVPIECE4^FS
^A0N,34,34^FO64,1590^FVKITPART^FS
^A0N,34,34^FO284,1590^FV1^FS
^A0N,34,34^FO152,170^FVCLOVER ALLEY GIFTS^FS
^A0N,34,34^FO151,220^FV203 NORTH MOOSE STREET^FS
^A0N,34,34^FO152,264^FV^FS
^A0N,85,86^FO250,443^FV AR 728 0-01^FS
^A0N,56,56^FO8,692^FVUPS GROUND^FS
^A0N,17,18^FO620,1620^FV06/06/2012 10:06:25 AM^FS
^A0N,28,28^FO192,751^FV1Z 923 AX3 03 3462 5089^FS
^FO12,447^BD4^FH^FV[)>_1e01_1d96721100000_1d840_1d003_1d1Z34625089_1dUPSN_1d923AX3_1d158_1d_1d1/1_1d8_1dN_1d_1dMORRILTON_1dAR_1e_04^FS
^A0N,42,42^FO500,17^FV8 LBS^FS
^A0N,34,34^FO670,17^FV1 OF 1^FS
^A0N,34,34^FO153,312^FV^FS
^A0N,42,42^FO152,359^FVMORRILTON  AR  72110^FS
^A0N,28,28^FO15,1120^FDBILLING:^FS
^A0N,28,28^FO135,1120^FVP/P^FS
^A0N,28,28^FO14,1150^FDREF1:^FS
^A0N,28,28^FO14,1180^FDREF2:^FS
^A0N,28,28^FO111,1150^FV053112^FS
^A0N,28,28^FO111,1180^FV00000530050444097117^FS
^A0N,17,18^FO560,1200^FVURC27.5A 04/2012^FS
^A0N,23,24^FO13,17^FVLIFETIME BRANDS CORP^FS
^A0N,23,24^FO13,43^FV^FS
^A0N,23,24^FO13,71^FV12 APPLEGATE DRIVE^FS
^A0N,23,24^FO13,98^FVROBBINSVILLE  NJ  08691^FS
^BY4^FO300,537^BCN,96,N,N,N^FV>;42072110^FS
^BY4,2.3,255^FO74,1283^BCN,,N,N,Y,U^FV00000530050444097117^FS
^BY3^FO74,803^BCN,271,N,N,Y,N^FV>:1Z923AX3>50334625089^FS
^A0B,28,28^FO727,1376^FV 99101-35^FS
^A0B,28,28^FO782,1376^FV^FS
^A0N,34,34^FO250,1244^FDSLOT:^FS
^A0N,34,34^FO350,1244^FV0^FS
^ADN,36,20^FO448,26^FV^FS
^PQ1,0,1,Y
^XZ
^XA
^IDR:TEMP_FMT.ZPL
^XZ
