SQL> set pagesize 100
SQL> set linesize 200
SQL> select * from sap_gp_xref_routes;

SAP_ID                                   GP_ID                                                                                                                                                          
---------------------------------------- -------------------------                                                                                                                                      
131337-00005                             L4537500-00005                                                                                                                                                 
131336-00006                             L4537500-00006                                                                                                                                                 
141270-00015                             L4537500-00015                                                                                                                                                 
141263-00016                             L4537500-00016                                                                                                                                                 
141246-00017                             L4537500-00017                                                                                                                                                 
141242-00018                             L4537500-00018                                                                                                                                                 
141258-00020                             L4537500-00020                                                                                                                                                 
141252-00024                             L4537500-00024                                                                                                                                                 
144082-00025                             L4537500-00025                                                                                                                                                 
141251-00027                             L4537500-00027                                                                                                                                                 
141241-00029                             L4537500-00029                                                                                                                                                 
141267-00030                             L4537500-00030                                                                                                                                                 
141074-00031                             L4537500-00031                                                                                                                                                 
141238-00032                             L4537500-00032                                                                                                                                                 
141075-00033                             L4537500-00033                                                                                                                                                 
141248-00034                             L4537500-00034                                                                                                                                                 
141240-00037                             L4537500-00037                                                                                                                                                 
141254-00038                             L4537500-00038                                                                                                                                                 
141271-00039                             L4537500-00039                                                                                                                                                 
141250-00040                             L4537500-00040                                                                                                                                                 
141245-00043                             L4537500-00043                                                                                                                                                 
141247-00044                             L4537500-00044                                                                                                                                                 
141266-00045                             L4537500-00045                                                                                                                                                 
141264-00046                             L4537500-00046                                                                                                                                                 
145350-00050                             L4537500-00050                                                                                                                                                 
141244-00052                             L4537500-00052                                                                                                                                                 
141253-00053                             L4537500-00053                                                                                                                                                 
141257-00056                             L4537500-00056                                                                                                                                                 
141256-00057                             L4537500-00057                                                                                                                                                 
141239-00058                             L4537500-00058                                                                                                                                                 
144219-00060                             L4537500-00060                                                                                                                                                 
141249-00065                             L4537500-00065                                                                                                                                                 
141261-00066                             L4537500-00066                                                                                                                                                 
141073-00070                             L4537500-00070                                                                                                                                                 
141262-00072                             L4537500-00072                                                                                                                                                 
141071-00077                             L4537500-00077                                                                                                                                                 
141265-00079                             L4537500-00079                                                                                                                                                 
141076-00081                             L4537500-00081                                                                                                                                                 
141243-00082                             L4537500-00082                                                                                                                                                 
141078-00085                             L4537500-00085                                                                                                                                                 
142592-00086                             L4537500-00086                                                                                                                                                 
141255-00087                             L4537500-00087                                                                                                                                                 
141260-00090                             L4537500-00090                                                                                                                                                 
141259-00092                             L4537500-00092                                                                                                                                                 
141237-00095                             L4537500-00095                                                                                                                                                 
141220-00102                             L4537500-00102                                                                                                                                                 
141221-00106                             L4537500-00106                                                                                                                                                 
141222-00107                             L4537500-00107                                                                                                                                                 
141223-00108                             L4537500-00108                                                                                                                                                 
141072-00111                             L4537500-00111                                                                                                                                                 
141077-00112                             L4537500-00112                                                                                                                                                 
141079-00116                             L4537500-00116                                                                                                                                                 
141224-00118                             L4537500-00118                                                                                                                                                 
141225-00121                             L4537500-00121                                                                                                                                                 
141080-00123                             L4537500-00123                                                                                                                                                 
141226-00124                             L4537500-00124                                                                                                                                                 
141081-00128                             L4537500-00128                                                                                                                                                 
141082-00129                             L4537500-00129                                                                                                                                                 
141216-00130                             L4537500-00130                                                                                                                                                 
141273-00133                             L4537500-00133                                                                                                                                                 
141083-00134                             L4537500-00134                                                                                                                                                 
141217-00135                             L4537500-00135                                                                                                                                                 
141218-00136                             L4537500-00136                                                                                                                                                 
141219-00139                             L4537500-00139                                                                                                                                                 
141084-00140                             L4537500-00140                                                                                                                                                 
141085-00141                             L4537500-00141                                                                                                                                                 
141086-00144                             L4537500-00144                                                                                                                                                 
141087-00146                             L4537500-00146                                                                                                                                                 
141088-00149                             L4537500-00149                                                                                                                                                 
141089-00152                             L4537500-00152                                                                                                                                                 
141227-00163                             L4537500-00163                                                                                                                                                 
141090-00165                             L4537500-00165                                                                                                                                                 
141101-00166                             L4537500-00166                                                                                                                                                 
141228-00172                             L4537500-00172                                                                                                                                                 
141091-00175                             L4537500-00175                                                                                                                                                 
125725-00179                             L4537500-00179                                                                                                                                                 
141229-00183                             L4537500-00183                                                                                                                                                 
141230-00186                             L4537500-00186                                                                                                                                                 
141092-00187                             L4537500-00187                                                                                                                                                 
142446-00188                             L4537500-00188                                                                                                                                                 
141093-00189                             L4537500-00189                                                                                                                                                 
141231-00190                             L4537500-00190                                                                                                                                                 
141232-00191                             L4537500-00191                                                                                                                                                 
141233-00192                             L4537500-00192                                                                                                                                                 
141234-00193                             L4537500-00193                                                                                                                                                 
141235-00194                             L4537500-00194                                                                                                                                                 
141094-00195                             L4537500-00195                                                                                                                                                 
141236-00196                             L4537500-00196                                                                                                                                                 
141095-00197                             L4537500-00197                                                                                                                                                 
147815-YORK                              L4537500-YORK                                                                                                                                                  
113014                                   L4537500                                                                                                                                                       

91 rows selected.

SQL> spool off
