
PRTNUM                         VC_P                                             
------------------------------ ----                                             
107F                           MA01                                             
1094.01                        UA01                                             
1094.01P                       UA01                                             
1094M                          UA01                                             
1096.01                        UA01                                             
1096.01P                       UA01                                             
1107.01                        UA01                                             
1108.01                        UA01                                             
110F                           MA01                                             
115F                           MA01                                             
119F                           MA01                                             
1200FK                         UA01                                             
138F                           MA01                                             
143F                           MA01                                             
1601.01                        UA01                                             
1603.01                        UA01                                             
1708/1709.01P                  UA01                                             
1708/1709.13P                  UA01                                             
3000.01                        UA01                                             
3001.13                        UA01                                             
3011.01                        UA01                                             
3020.01                        UA01                                             
3021.13                        UA01                                             
3081.24                        UA01                                             
3085.24                        UA01                                             
3086.13                        UA01                                             
4384018                        EXE5                                             
4384022                        EXE5                                             
4385018                        EXE5                                             
4385022                        EXE5                                             
4386018                        EXE5                                             
4386022                        EXE5                                             
44827                          7A01                                             
BHA908A02                      UA01                                             
7000-05                        EAEA                                             
KBSGT977ER                     RB24                                             

36 rows selected.

