Zebra Z4M Plus (300dpi)
^XA
^EG
^XZ
^XA
^MCY
^XZ
^XA
^FWN^CFD,24^PW2550^LH0,0
^CI0^PR6^MNY^MTT^MMT^MD0^PON^PMN^LRN
^XZ
^XA
^DFR:TEMP_FMT.ZPL
^LRN
^XZ
^XA
^XFR:TEMP_FMT.ZPL
^A0N,50,50^FO4,252^FDSHIP^FS
^A0N,50,50^FO4,312^FDTO:^FS
^FO2,636^GB1194,6,6,B,0^FS
^FO995,1011^GB203,150,150,B,0^FS
^FO2,1160^GB1198,6,6,B,0^FS
^FO6,1620^GB1200,30,30,B,0^FS
^A0N,42,42^FO11,1115^FDTRACKING #:^FS
^FO361,640^GB6,347,6,B,0^FS
^A0N,58,60^FO340,1824^FV(00) 0 00 53005 032863086 7^FS
^A0N,50,50^FO110,1824^FDSLOT:^FS
^A0N,50,50^FO250,1824^FV0^FS
^A0N,50,50^FO70,2279^FVFSTG01^FS
^A0N,50,50^FO380,2279^FVK1412B^FS
^A0N,50,50^FO900,2279^FV3132980^FS
^A0N,50,50^FO900,2339^FVSID0913814^FS
^A0N,50,50^FO720,2279^FVDM1^FS
^A0N,50,50^FO720,2339^FVDM5^FS
^A0N,50,50^FO70,2339^FVKITPART^FS
^A0N,25,26^FO850,2384^FV02/22/2010 10:02:09 AM^FS
^A0N,50,50^FO427,2339^FV1^FS
^A0N,50,50^FO224,254^FVJAMES WOZNIAK^FS
^A0N,50,50^FO223,325^FV70 BEAUMONT AVE^FS
^A0N,50,50^FO225,389^FV^FS
^A0N,125,128^FO402,659^FV MA 011 9-02^FS
^A0N,83,82^FO12,1023^FVUPS GROUND^FS
^A0N,42,42^FO284,1110^FV1Z 044 21Y 03 1310 9213^FS
^FO18,661^BD3^FH^FV[)>_1e01_1d96010130000_1d840_1d003_1d1Z13109213_1dUPSN_1d04421Y_1d053_1d_1d1/1_1d13_1dN_1d_1dCHICOPEE_1dMA_1e_04^FS
^A0N,62,62^FO700,30^FV13 LBS^FS
^A0N,50,50^FO930,30^FV1 OF 1^FS
^A0N,50,50^FO226,462^FV^FS
^A0N,62,62^FO224,531^FVCHICOPEE  MA  01013^FS
^A0N,42,42^FO200,1660^FVP/P^FS
^A0N,42,42^FO20,1660^FDBILLING:^FS;
^A0N,42,42^FO20,1710^FDREF1:^FS
^A0N,42,42^FO20,1760^FDREF2:^FS
^A0N,42,42^FO165,1710^FVW30842480101^FS
^A0N,42,42^FO165,1760^FV00000530050328630867^FS
^A0N,25,26^FO900,1774^FV96.5A 10/2009^FS
^A0N,33,36^FO19,30^FVPFALTZGRAFF.COM FULFILMENT CENTER^FS
^A0N,33,36^FO19,69^FV^FS
^A0N,33,36^FO19,110^FV12 APPLEGATE DR^FS
^A0N,33,36^FO19,149^FVROBBINSVILLE  NJ  08691^FS
^A0B,42,42^FO14,1824^FV^FS
^A0B,42,42^FO1070,2000^FV 64-843^FS
^A0B,42,42^FO1150,2000^FVCATALOG^FS
^BY5^FO523,794^BCN,142,N,N,N^FV>;42001013^FS
^BY6^FO110,1896^BCN,337,N,N,Y,U^FV00000530050328630867^FS
^BY5^FO110,1187^BCN,400,N,N,Y,N^FV>:1Z04421Y>50313109213^FS
^FO2,983^GB1199,30,30,B,0^FS
^ADN,36,20^FO448,26^FV^FS
^PQ1,0,1,Y
^XZ
^XA
^IDR:TEMP_FMT.ZPL
^XZ
